127.0.0.1 - - [13/Feb/2020:21:25:10 +0800] "GET / HTTP/1.1" 200 11414
0:0:0:0:0:0:0:1 - - [13/Feb/2020:21:25:10 +0800] "GET /WebWithSQL/test2.jsp HTTP/1.1" 200 354
0:0:0:0:0:0:0:1 - - [13/Feb/2020:21:25:29 +0800] "GET /WebWithSQL/form_action.asp?fname=&lname= HTTP/1.1" 404 709
0:0:0:0:0:0:0:1 - - [13/Feb/2020:21:26:37 +0800] "GET / HTTP/1.1" 200 11414
0:0:0:0:0:0:0:1 - - [13/Feb/2020:21:26:37 +0800] "GET /tomcat.css HTTP/1.1" 200 5931
0:0:0:0:0:0:0:1 - - [13/Feb/2020:21:26:37 +0800] "GET /tomcat.png HTTP/1.1" 200 5103
0:0:0:0:0:0:0:1 - - [13/Feb/2020:21:26:37 +0800] "GET /bg-upper.png HTTP/1.1" 200 3103
0:0:0:0:0:0:0:1 - - [13/Feb/2020:21:26:37 +0800] "GET /bg-nav.png HTTP/1.1" 200 1401
0:0:0:0:0:0:0:1 - - [13/Feb/2020:21:26:37 +0800] "GET /asf-logo-wide.svg HTTP/1.1" 200 27530
0:0:0:0:0:0:0:1 - - [13/Feb/2020:21:26:37 +0800] "GET /bg-button.png HTTP/1.1" 200 713
0:0:0:0:0:0:0:1 - - [13/Feb/2020:21:26:37 +0800] "GET /bg-middle.png HTTP/1.1" 200 1918
0:0:0:0:0:0:0:1 - - [13/Feb/2020:21:27:16 +0800] "GET /WebWithSQL/ HTTP/1.1" 404 694
0:0:0:0:0:0:0:1 - - [13/Feb/2020:21:27:39 +0800] "GET /WebWithSQL/ HTTP/1.1" 404 694
127.0.0.1 - - [13/Feb/2020:21:28:25 +0800] "GET / HTTP/1.1" 200 11414
0:0:0:0:0:0:0:1 - - [13/Feb/2020:21:28:25 +0800] "GET /WebWithSQL/ HTTP/1.1" 404 694
0:0:0:0:0:0:0:1 - - [13/Feb/2020:21:29:05 +0800] "GET /WebContent HTTP/1.1" 404 689
0:0:0:0:0:0:0:1 - - [13/Feb/2020:21:29:20 +0800] "GET /WebContent/test1.jsp HTTP/1.1" 404 703
0:0:0:0:0:0:0:1 - - [13/Feb/2020:21:30:34 +0800] "GET /WebWithSQL/ HTTP/1.1" 200 354
127.0.0.1 - - [13/Feb/2020:21:32:36 +0800] "GET / HTTP/1.1" 200 11414
0:0:0:0:0:0:0:1 - - [13/Feb/2020:21:32:37 +0800] "GET /WebWithSQL/ HTTP/1.1" 200 167
0:0:0:0:0:0:0:1 - - [13/Feb/2020:21:34:19 +0800] "GET /WebWithSQL/ HTTP/1.1" 200 354
0:0:0:0:0:0:0:1 - - [13/Feb/2020:21:34:19 +0800] "GET /favicon.ico HTTP/1.1" 200 21630
0:0:0:0:0:0:0:1 - - [13/Feb/2020:21:36:31 +0800] "GET /WebWithSQL/form_action.asp?fname=23&lname=123 HTTP/1.1" 404 709
0:0:0:0:0:0:0:1 - - [13/Feb/2020:21:37:10 +0800] "GET /WebWithSQL/form_action.asp?fname=23&lname=123 HTTP/1.1" 404 709
0:0:0:0:0:0:0:1 - - [13/Feb/2020:21:40:21 +0800] "GET /WebWithSQL/ HTTP/1.1" 200 354
0:0:0:0:0:0:0:1 - - [13/Feb/2020:21:40:21 +0800] "GET /favicon.ico HTTP/1.1" 200 21630
0:0:0:0:0:0:0:1 - - [13/Feb/2020:21:40:31 +0800] "POST /WebWithSQL/AddUserServlet HTTP/1.1" 200 22
0:0:0:0:0:0:0:1 - - [13/Feb/2020:21:41:32 +0800] "POST /WebWithSQL/AddUserServlet HTTP/1.1" 200 22
0:0:0:0:0:0:0:1 - - [13/Feb/2020:22:24:26 +0800] "POST /WebWithSQL/AddUserServlet HTTP/1.1" 200 22
0:0:0:0:0:0:0:1 - - [13/Feb/2020:22:31:26 +0800] "POST /WebWithSQL/AddUserServlet HTTP/1.1" 200 22
0:0:0:0:0:0:0:1 - - [13/Feb/2020:22:31:45 +0800] "POST /WebWithSQL/AddUserServlet HTTP/1.1" 200 22
0:0:0:0:0:0:0:1 - - [13/Feb/2020:22:34:03 +0800] "GET /WebWithSQL/ HTTP/1.1" 200 362
0:0:0:0:0:0:0:1 - - [13/Feb/2020:22:34:18 +0800] "POST /WebWithSQL/Servlet/AddUserServlet HTTP/1.1" 404 720
0:0:0:0:0:0:0:1 - - [13/Feb/2020:22:35:26 +0800] "POST /WebWithSQL/Servlet/AddUserServlet HTTP/1.1" 404 720
0:0:0:0:0:0:0:1 - - [13/Feb/2020:22:35:42 +0800] "GET /WebWithSQL/ HTTP/1.1" 200 366
0:0:0:0:0:0:0:1 - - [13/Feb/2020:22:35:42 +0800] "GET /favicon.ico HTTP/1.1" 200 21630
0:0:0:0:0:0:0:1 - - [13/Feb/2020:22:35:45 +0800] "POST /WebWithSQL/src/Servlet/AddUserServlet HTTP/1.1" 404 728
0:0:0:0:0:0:0:1 - - [13/Feb/2020:22:36:30 +0800] "POST /WebWithSQL/src/Servlet/AddUserServlet HTTP/1.1" 404 728
0:0:0:0:0:0:0:1 - - [13/Feb/2020:22:36:30 +0800] "GET /favicon.ico HTTP/1.1" 200 21630
0:0:0:0:0:0:0:1 - - [13/Feb/2020:22:36:32 +0800] "GET /WebWithSQL/ HTTP/1.1" 200 371
0:0:0:0:0:0:0:1 - - [13/Feb/2020:22:36:32 +0800] "GET /favicon.ico HTTP/1.1" 200 21630
0:0:0:0:0:0:0:1 - - [13/Feb/2020:22:36:35 +0800] "POST /WebWithSQL/src/Servlet/AddUserServlet.java HTTP/1.1" 404 733
0:0:0:0:0:0:0:1 - - [13/Feb/2020:22:38:17 +0800] "GET /WebWithSQL/ HTTP/1.1" 200 354
0:0:0:0:0:0:0:1 - - [13/Feb/2020:22:38:17 +0800] "GET /favicon.ico HTTP/1.1" 200 21630
0:0:0:0:0:0:0:1 - - [13/Feb/2020:22:38:19 +0800] "POST /WebWithSQL/AddUserServlet HTTP/1.1" 200 22
0:0:0:0:0:0:0:1 - - [13/Feb/2020:22:38:45 +0800] "GET /WebWithSQL/ HTTP/1.1" 200 358
0:0:0:0:0:0:0:1 - - [13/Feb/2020:22:38:45 +0800] "GET /favicon.ico HTTP/1.1" 200 21630
0:0:0:0:0:0:0:1 - - [13/Feb/2020:22:38:47 +0800] "POST /WebWithSQL/src/AddUserServlet HTTP/1.1" 404 716
0:0:0:0:0:0:0:1 - - [13/Feb/2020:22:38:57 +0800] "POST /WebWithSQL/src/AddUserServlet HTTP/1.1" 404 716
0:0:0:0:0:0:0:1 - - [13/Feb/2020:22:41:13 +0800] "GET /WebWithSQL/ HTTP/1.1" 200 354
0:0:0:0:0:0:0:1 - - [13/Feb/2020:22:41:13 +0800] "GET /favicon.ico HTTP/1.1" 200 21630
0:0:0:0:0:0:0:1 - - [13/Feb/2020:22:41:17 +0800] "POST /WebWithSQL/AddUserServlet HTTP/1.1" 200 22
0:0:0:0:0:0:0:1 - - [13/Feb/2020:22:42:41 +0800] "GET /WebWithSQL/ HTTP/1.1" 200 362
0:0:0:0:0:0:0:1 - - [13/Feb/2020:22:42:41 +0800] "GET /favicon.ico HTTP/1.1" 200 21630
0:0:0:0:0:0:0:1 - - [13/Feb/2020:22:42:44 +0800] "POST /WebWithSQL/Servlet/AddUserServlet HTTP/1.1" 404 720
0:0:0:0:0:0:0:1 - - [13/Feb/2020:22:46:56 +0800] "GET /WebWithSQL/ HTTP/1.1" 200 362
0:0:0:0:0:0:0:1 - - [13/Feb/2020:22:46:56 +0800] "GET /favicon.ico HTTP/1.1" 200 21630
0:0:0:0:0:0:0:1 - - [13/Feb/2020:22:46:58 +0800] "POST /WebWithSQL/Servlet/addUserServlet HTTP/1.1" 404 720
0:0:0:0:0:0:0:1 - - [13/Feb/2020:22:48:36 +0800] "GET /WebWithSQL/ HTTP/1.1" 200 362
0:0:0:0:0:0:0:1 - - [13/Feb/2020:22:48:36 +0800] "GET /favicon.ico HTTP/1.1" 200 21630
0:0:0:0:0:0:0:1 - - [13/Feb/2020:22:48:38 +0800] "POST /WebWithSQL/Servlet/addUserServlet HTTP/1.1" 404 720
127.0.0.1 - - [13/Feb/2020:22:48:54 +0800] "GET / HTTP/1.1" 200 11414
0:0:0:0:0:0:0:1 - - [13/Feb/2020:22:48:54 +0800] "GET /WebWithSQL/ HTTP/1.1" 200 362
0:0:0:0:0:0:0:1 - - [13/Feb/2020:22:49:04 +0800] "GET /WebWithSQL HTTP/1.1" 302 -
0:0:0:0:0:0:0:1 - - [13/Feb/2020:22:49:04 +0800] "GET /WebWithSQL/ HTTP/1.1" 200 362
0:0:0:0:0:0:0:1 - - [13/Feb/2020:22:49:08 +0800] "POST /WebWithSQL/Servlet/addUserServlet HTTP/1.1" 404 720
0:0:0:0:0:0:0:1 - - [13/Feb/2020:22:52:00 +0800] "GET /WebWithSQL/ HTTP/1.1" 200 363
0:0:0:0:0:0:0:1 - - [13/Feb/2020:22:52:00 +0800] "GET /favicon.ico HTTP/1.1" 200 21630
0:0:0:0:0:0:0:1 - - [13/Feb/2020:22:52:02 +0800] "POST /Servlet/addUserServlet HTTP/1.1" 404 705
0:0:0:0:0:0:0:1 - - [13/Feb/2020:22:56:34 +0800] "GET /WebWithSQL/ HTTP/1.1" 200 357
0:0:0:0:0:0:0:1 - - [13/Feb/2020:22:56:34 +0800] "GET /favicon.ico HTTP/1.1" 200 21630
0:0:0:0:0:0:0:1 - - [13/Feb/2020:22:56:38 +0800] "POST /addUserServlet HTTP/1.1" 404 693
0:0:0:0:0:0:0:1 - - [13/Feb/2020:23:11:41 +0800] "GET /WebWithSQL/ HTTP/1.1" 200 362
0:0:0:0:0:0:0:1 - - [13/Feb/2020:23:11:41 +0800] "GET /favicon.ico HTTP/1.1" 200 21630
0:0:0:0:0:0:0:1 - - [13/Feb/2020:23:11:44 +0800] "POST /WebWithSQL/Servlet/AddUserServlet HTTP/1.1" 500 3203
0:0:0:0:0:0:0:1 - - [13/Feb/2020:23:16:10 +0800] "POST /WebWithSQL/Servlet/AddUserServlet HTTP/1.1" 404 653
0:0:0:0:0:0:0:1 - - [13/Feb/2020:23:16:10 +0800] "GET /favicon.ico HTTP/1.1" 200 21630
0:0:0:0:0:0:0:1 - - [13/Feb/2020:23:16:12 +0800] "GET /WebWithSQL/ HTTP/1.1" 200 362
0:0:0:0:0:0:0:1 - - [13/Feb/2020:23:16:12 +0800] "GET /favicon.ico HTTP/1.1" 200 21630
0:0:0:0:0:0:0:1 - - [13/Feb/2020:23:16:16 +0800] "POST /WebWithSQL/Servlet/AddUserServlet HTTP/1.1" 404 653
127.0.0.1 - - [13/Feb/2020:23:16:47 +0800] "GET / HTTP/1.1" 200 11414
0:0:0:0:0:0:0:1 - - [13/Feb/2020:23:16:48 +0800] "GET /WebWithSQL/ HTTP/1.1" 200 362
0:0:0:0:0:0:0:1 - - [13/Feb/2020:23:16:53 +0800] "GET /WebWithSQL/ HTTP/1.1" 200 362
0:0:0:0:0:0:0:1 - - [13/Feb/2020:23:16:53 +0800] "GET /favicon.ico HTTP/1.1" 200 21630
0:0:0:0:0:0:0:1 - - [13/Feb/2020:23:16:57 +0800] "POST /WebWithSQL/Servlet/AddUserServlet HTTP/1.1" 500 3203
0:0:0:0:0:0:0:1 - - [13/Feb/2020:23:19:12 +0800] "GET /WebWithSQL/ HTTP/1.1" 200 362
0:0:0:0:0:0:0:1 - - [13/Feb/2020:23:19:12 +0800] "GET /favicon.ico HTTP/1.1" 200 21630
0:0:0:0:0:0:0:1 - - [13/Feb/2020:23:19:16 +0800] "POST /WebWithSQL/Servlet/AddUserServlet HTTP/1.1" 404 653
127.0.0.1 - - [13/Feb/2020:23:22:24 +0800] "GET / HTTP/1.1" 200 11414
0:0:0:0:0:0:0:1 - - [13/Feb/2020:23:22:25 +0800] "GET /WebWithSQL/ HTTP/1.1" 404 694
0:0:0:0:0:0:0:1 - - [13/Feb/2020:23:22:45 +0800] "GET /WebWithSQL/ HTTP/1.1" 200 362
0:0:0:0:0:0:0:1 - - [13/Feb/2020:23:25:33 +0800] "POST /WebWithSQL/Servlet/AddUserServlet HTTP/1.1" 500 3203
0:0:0:0:0:0:0:1 - - [13/Feb/2020:23:25:33 +0800] "GET /favicon.ico HTTP/1.1" 200 21630
127.0.0.1 - - [13/Feb/2020:23:25:56 +0800] "GET / HTTP/1.1" 200 11414
0:0:0:0:0:0:0:1 - - [13/Feb/2020:23:25:57 +0800] "GET /WebWithSQL/ HTTP/1.1" 200 373
0:0:0:0:0:0:0:1 - - [13/Feb/2020:23:26:03 +0800] "GET /WebWithSQL/ HTTP/1.1" 200 373
0:0:0:0:0:0:0:1 - - [13/Feb/2020:23:26:03 +0800] "GET /favicon.ico HTTP/1.1" 200 21630
0:0:0:0:0:0:0:1 - - [13/Feb/2020:23:26:07 +0800] "POST /WebWithSQL/WebWithSQL/Servlet/AddUserServlet HTTP/1.1" 404 735
0:0:0:0:0:0:0:1 - - [13/Feb/2020:23:27:16 +0800] "POST /WebWithSQL/WebWithSQL/Servlet/AddUserServlet HTTP/1.1" 404 735
0:0:0:0:0:0:0:1 - - [13/Feb/2020:23:27:16 +0800] "GET /favicon.ico HTTP/1.1" 200 21630
