127.0.0.1 - - [15/Apr/2020:02:22:27 +0800] "GET / HTTP/1.1" 200 11414
127.0.0.1 - - [15/Apr/2020:02:22:28 +0800] "GET /Springmvc/WEB-INF/jsps/input.jsp HTTP/1.1" 404 653
127.0.0.1 - - [15/Apr/2020:02:22:45 +0800] "GET /Springmvc/index.jsp HTTP/1.1" 200 516
127.0.0.1 - - [15/Apr/2020:02:26:16 +0800] "GET / HTTP/1.1" 200 11414
127.0.0.1 - - [15/Apr/2020:02:26:18 +0800] "GET /Springmvc/index.jsp HTTP/1.1" 200 555
127.0.0.1 - - [15/Apr/2020:02:26:20 +0800] "GET /Springmvc/test/input HTTP/1.1" 200 482
127.0.0.1 - - [15/Apr/2020:02:26:22 +0800] "GET /Springmvc/test/emp HTTP/1.1" 404 705
127.0.0.1 - - [15/Apr/2020:02:27:26 +0800] "GET /Springmvc/WEB-INF/jsps/login.jsp HTTP/1.1" 404 653
127.0.0.1 - - [15/Apr/2020:02:27:38 +0800] "GET /Springmvc/index.jsp HTTP/1.1" 200 555
127.0.0.1 - - [15/Apr/2020:02:27:40 +0800] "GET /Springmvc/test/test1 HTTP/1.1" 200 160
127.0.0.1 - - [15/Apr/2020:02:29:48 +0800] "GET /Springmvc HTTP/1.1" 302 -
127.0.0.1 - - [15/Apr/2020:02:29:48 +0800] "GET /Springmvc/ HTTP/1.1" 200 555
127.0.0.1 - - [15/Apr/2020:02:29:58 +0800] "GET /Springmvc/ HTTP/1.1" 200 555
127.0.0.1 - - [15/Apr/2020:02:29:58 +0800] "GET /favicon.ico HTTP/1.1" 200 21630
127.0.0.1 - - [15/Apr/2020:02:31:25 +0800] "POST /Springmvc/test/abc HTTP/1.1" 200 163
127.0.0.1 - - [15/Apr/2020:02:55:30 +0800] "GET / HTTP/1.1" 200 11414
127.0.0.1 - - [15/Apr/2020:02:55:30 +0800] "GET /Springmvc/index.jsp HTTP/1.1" 200 555
127.0.0.1 - - [15/Apr/2020:02:55:36 +0800] "POST /Springmvc/test/abc HTTP/1.1" 200 177
127.0.0.1 - - [15/Apr/2020:21:57:42 +0800] "GET / HTTP/1.1" 200 11414
127.0.0.1 - - [15/Apr/2020:21:57:43 +0800] "GET /Springmvc/index.jsp HTTP/1.1" 200 555
127.0.0.1 - - [15/Apr/2020:21:57:46 +0800] "GET /Springmvc/test/input HTTP/1.1" 200 482
127.0.0.1 - - [15/Apr/2020:21:57:48 +0800] "GET /Springmvc/test/emp HTTP/1.1" 404 705
127.0.0.1 - - [15/Apr/2020:21:58:09 +0800] "GET /Springmvc/test/emp HTTP/1.1" 404 705
127.0.0.1 - - [15/Apr/2020:21:59:14 +0800] "GET /Springmvc/test/emp HTTP/1.1" 404 705
127.0.0.1 - - [15/Apr/2020:21:59:56 +0800] "GET / HTTP/1.1" 200 11414
127.0.0.1 - - [15/Apr/2020:21:59:56 +0800] "GET /Springmvc/index.jsp HTTP/1.1" 200 555
127.0.0.1 - - [15/Apr/2020:21:59:59 +0800] "GET /Springmvc/test/input HTTP/1.1" 200 483
127.0.0.1 - - [15/Apr/2020:22:00:00 +0800] "GET /Springmvc/test/user HTTP/1.1" 404 706
127.0.0.1 - - [15/Apr/2020:22:01:03 +0800] "GET /Springmvc/test/emp HTTP/1.1" 404 705
127.0.0.1 - - [15/Apr/2020:22:01:11 +0800] "GET /Springmvc/index.jsp HTTP/1.1" 200 555
127.0.0.1 - - [15/Apr/2020:22:01:12 +0800] "GET /Springmvc/test/input HTTP/1.1" 200 483
127.0.0.1 - - [15/Apr/2020:22:01:13 +0800] "GET /Springmvc/test/user HTTP/1.1" 404 706
127.0.0.1 - - [15/Apr/2020:22:02:58 +0800] "GET / HTTP/1.1" 200 11414
127.0.0.1 - - [15/Apr/2020:22:03:05 +0800] "GET /Springmvc/index.jsp HTTP/1.1" 200 555
127.0.0.1 - - [15/Apr/2020:22:03:06 +0800] "GET /Springmvc/test/input HTTP/1.1" 200 483
127.0.0.1 - - [15/Apr/2020:22:03:07 +0800] "GET /Springmvc/test/user HTTP/1.1" 404 706
127.0.0.1 - - [15/Apr/2020:22:03:19 +0800] "GET /Springmvc/index.jsp HTTP/1.1" 200 555
127.0.0.1 - - [15/Apr/2020:22:03:27 +0800] "GET /Springmvc/index.jsp HTTP/1.1" 200 555
127.0.0.1 - - [15/Apr/2020:22:03:29 +0800] "GET /Springmvc/test/input HTTP/1.1" 200 483
127.0.0.1 - - [15/Apr/2020:22:03:31 +0800] "GET /Springmvc/test/user HTTP/1.1" 404 706
127.0.0.1 - - [15/Apr/2020:22:06:00 +0800] "GET / HTTP/1.1" 200 11414
127.0.0.1 - - [15/Apr/2020:22:06:04 +0800] "GET /Springmvc/test/input HTTP/1.1" 200 483
127.0.0.1 - - [15/Apr/2020:22:06:04 +0800] "GET /favicon.ico HTTP/1.1" 200 21630
127.0.0.1 - - [15/Apr/2020:22:06:06 +0800] "GET /Springmvc/test/user HTTP/1.1" 404 706
127.0.0.1 - - [15/Apr/2020:22:06:10 +0800] "GET /Springmvc/test/input HTTP/1.1" 200 483
127.0.0.1 - - [15/Apr/2020:22:06:11 +0800] "GET /Springmvc/test/user HTTP/1.1" 404 706
127.0.0.1 - - [15/Apr/2020:22:06:57 +0800] "GET / HTTP/1.1" 200 11414
127.0.0.1 - - [15/Apr/2020:22:07:05 +0800] "GET /Springmvc/test/user HTTP/1.1" 404 706
127.0.0.1 - - [15/Apr/2020:22:07:09 +0800] "GET /Springmvc/test/input HTTP/1.1" 200 484
127.0.0.1 - - [15/Apr/2020:22:07:10 +0800] "GET /user HTTP/1.1" 404 683
127.0.0.1 - - [15/Apr/2020:22:07:13 +0800] "GET /Springmvc/test/input HTTP/1.1" 200 484
127.0.0.1 - - [15/Apr/2020:22:07:17 +0800] "GET /Springmvc/test/input HTTP/1.1" 200 484
127.0.0.1 - - [15/Apr/2020:22:07:25 +0800] "GET /user HTTP/1.1" 404 683
127.0.0.1 - - [15/Apr/2020:22:07:31 +0800] "GET /user HTTP/1.1" 404 683
127.0.0.1 - - [15/Apr/2020:22:07:56 +0800] "GET /user HTTP/1.1" 404 683
127.0.0.1 - - [15/Apr/2020:22:08:17 +0800] "GET / HTTP/1.1" 200 11414
127.0.0.1 - - [15/Apr/2020:22:08:23 +0800] "GET /user HTTP/1.1" 404 683
127.0.0.1 - - [15/Apr/2020:22:08:25 +0800] "GET /user HTTP/1.1" 404 683
127.0.0.1 - - [15/Apr/2020:22:08:29 +0800] "GET /Springmvc/test/input HTTP/1.1" 200 484
127.0.0.1 - - [15/Apr/2020:22:11:28 +0800] "GET / HTTP/1.1" 200 11414
127.0.0.1 - - [15/Apr/2020:22:11:36 +0800] "GET /Springmvc/test/input HTTP/1.1" 200 483
127.0.0.1 - - [15/Apr/2020:22:11:37 +0800] "GET /Springmvc/test/user HTTP/1.1" 404 706
127.0.0.1 - - [15/Apr/2020:22:12:35 +0800] "GET /Springmvc/index.jsp HTTP/1.1" 200 560
127.0.0.1 - - [15/Apr/2020:22:12:35 +0800] "GET /favicon.ico HTTP/1.1" 200 21630
127.0.0.1 - - [15/Apr/2020:22:12:36 +0800] "GET /Springmvc/index.jsp HTTP/1.1" 200 560
127.0.0.1 - - [15/Apr/2020:22:12:36 +0800] "GET /favicon.ico HTTP/1.1" 200 21630
127.0.0.1 - - [15/Apr/2020:22:12:37 +0800] "GET /Springmvc/user/all HTTP/1.1" 200 5
127.0.0.1 - - [15/Apr/2020:22:12:43 +0800] "GET /Springmvc/user/all HTTP/1.1" 200 5
127.0.0.1 - - [15/Apr/2020:22:14:48 +0800] "GET / HTTP/1.1" 200 11414
127.0.0.1 - - [15/Apr/2020:22:14:54 +0800] "GET /Springmvc/index.jsp HTTP/1.1" 200 560
127.0.0.1 - - [15/Apr/2020:22:14:54 +0800] "GET /favicon.ico HTTP/1.1" 200 21630
127.0.0.1 - - [15/Apr/2020:22:14:55 +0800] "GET /Springmvc/user/all HTTP/1.1" 200 5
127.0.0.1 - - [15/Apr/2020:23:10:28 +0800] "GET /Springmvc/user/all HTTP/1.1" 200 5
127.0.0.1 - - [15/Apr/2020:23:10:36 +0800] "GET /Springmvc/user/all HTTP/1.1" 200 5
127.0.0.1 - - [15/Apr/2020:23:10:38 +0800] "GET /Springmvc/user/all HTTP/1.1" 200 5
127.0.0.1 - - [15/Apr/2020:23:37:30 +0800] "GET / HTTP/1.1" 200 11414
127.0.0.1 - - [15/Apr/2020:23:37:38 +0800] "GET /Springmvc/index.jsp HTTP/1.1" 200 560
127.0.0.1 - - [15/Apr/2020:23:37:38 +0800] "GET /favicon.ico HTTP/1.1" 200 21630
127.0.0.1 - - [15/Apr/2020:23:37:39 +0800] "GET /Springmvc/user/all HTTP/1.1" 200 4
127.0.0.1 - - [15/Apr/2020:23:37:52 +0800] "GET /Springmvc/user/all HTTP/1.1" 200 4
127.0.0.1 - - [15/Apr/2020:23:50:41 +0800] "GET / HTTP/1.1" 200 11414
127.0.0.1 - - [15/Apr/2020:23:50:53 +0800] "GET /Springmvc/index.jsp HTTP/1.1" 200 560
127.0.0.1 - - [15/Apr/2020:23:50:53 +0800] "GET /favicon.ico HTTP/1.1" 200 21630
127.0.0.1 - - [15/Apr/2020:23:50:55 +0800] "GET /Springmvc/user/all HTTP/1.1" 200 830
127.0.0.1 - - [15/Apr/2020:23:51:04 +0800] "GET /Springmvc/user/user HTTP/1.1" 400 737
