127.0.0.1 - - [28/Feb/2020:22:23:45 +0800] "GET / HTTP/1.1" 200 11414
0:0:0:0:0:0:0:1 - - [28/Feb/2020:22:23:55 +0800] "GET /WebWithSQL/ShowHRdata.jsp HTTP/1.1" 200 296
0:0:0:0:0:0:0:1 - - [28/Feb/2020:22:27:50 +0800] "GET /WebWithSQL/ShowHRdata.jsp HTTP/1.1" 200 296
0:0:0:0:0:0:0:1 - - [28/Feb/2020:22:27:50 +0800] "GET /favicon.ico HTTP/1.1" 200 21630
0:0:0:0:0:0:0:1 - - [28/Feb/2020:22:29:24 +0800] "GET /WebWithSQL/ShowHRdata.jsp HTTP/1.1" 200 296
0:0:0:0:0:0:0:1 - - [28/Feb/2020:22:29:24 +0800] "GET /favicon.ico HTTP/1.1" 200 21630
0:0:0:0:0:0:0:1 - - [28/Feb/2020:22:31:34 +0800] "GET /WebWithSQL/ShowHRdata.jsp HTTP/1.1" 200 335
0:0:0:0:0:0:0:1 - - [28/Feb/2020:22:31:34 +0800] "GET /WebWithSQL/ShowHRdata.java HTTP/1.1" 404 709
0:0:0:0:0:0:0:1 - - [28/Feb/2020:22:31:34 +0800] "GET /favicon.ico HTTP/1.1" 200 21630
0:0:0:0:0:0:0:1 - - [28/Feb/2020:22:32:25 +0800] "GET /WebWithSQL/ShowHRdata.jsp HTTP/1.1" 200 333
0:0:0:0:0:0:0:1 - - [28/Feb/2020:22:32:25 +0800] "GET /WebWithSQL/ShowHRdata.java HTTP/1.1" 404 709
0:0:0:0:0:0:0:1 - - [28/Feb/2020:22:32:25 +0800] "GET /favicon.ico HTTP/1.1" 200 21630
0:0:0:0:0:0:0:1 - - [28/Feb/2020:22:32:26 +0800] "GET /WebWithSQL/ShowHRdata.jsp HTTP/1.1" 200 333
0:0:0:0:0:0:0:1 - - [28/Feb/2020:22:32:26 +0800] "GET /WebWithSQL/ShowHRdata.java HTTP/1.1" 404 709
0:0:0:0:0:0:0:1 - - [28/Feb/2020:22:32:26 +0800] "GET /favicon.ico HTTP/1.1" 200 21630
0:0:0:0:0:0:0:1 - - [28/Feb/2020:22:38:48 +0800] "GET /WebWithSQL/ShowHRdata.jsp HTTP/1.1" 200 375
0:0:0:0:0:0:0:1 - - [28/Feb/2020:22:38:48 +0800] "GET /favicon.ico HTTP/1.1" 200 21630
