127.0.0.1 - - [15/Feb/2020:15:45:12 +0800] "GET / HTTP/1.1" 200 11414
0:0:0:0:0:0:0:1 - - [15/Feb/2020:15:45:13 +0800] "GET /WebWithSQL/ HTTP/1.1" 200 344
127.0.0.1 - - [15/Feb/2020:15:51:05 +0800] "GET / HTTP/1.1" 200 11414
0:0:0:0:0:0:0:1 - - [15/Feb/2020:15:51:06 +0800] "GET /WebWithSQL/ HTTP/1.1" 200 344
0:0:0:0:0:0:0:1 - - [15/Feb/2020:15:51:17 +0800] "GET /WebWithSQL/ HTTP/1.1" 200 344
0:0:0:0:0:0:0:1 - - [15/Feb/2020:15:51:36 +0800] "POST /WebWithSQL/Login HTTP/1.1" 200 22
127.0.0.1 - - [15/Feb/2020:16:28:02 +0800] "GET / HTTP/1.1" 200 11414
0:0:0:0:0:0:0:1 - - [15/Feb/2020:16:28:03 +0800] "GET /WebWithSQL/ HTTP/1.1" 200 350
0:0:0:0:0:0:0:1 - - [15/Feb/2020:16:28:05 +0800] "POST /WebWithSQL/admin_Login HTTP/1.1" 200 22
0:0:0:0:0:0:0:1 - - [15/Feb/2020:16:29:28 +0800] "GET /admin_Login HTTP/1.1" 404 690
0:0:0:0:0:0:0:1 - - [15/Feb/2020:16:30:03 +0800] "GET /WebWithSQL/ HTTP/1.1" 200 350
0:0:0:0:0:0:0:1 - - [15/Feb/2020:16:30:11 +0800] "GET /WebWithSQL/admin_Login HTTP/1.1" 200 22
0:0:0:0:0:0:0:1 - - [15/Feb/2020:16:30:21 +0800] "GET /WebWithSQL/admin_Login HTTP/1.1" 200 22
0:0:0:0:0:0:0:1 - - [15/Feb/2020:16:30:22 +0800] "GET /WebWithSQL/admin_Login HTTP/1.1" 200 22
0:0:0:0:0:0:0:1 - - [15/Feb/2020:16:30:23 +0800] "GET /WebWithSQL/admin_Login HTTP/1.1" 200 22
0:0:0:0:0:0:0:1 - - [15/Feb/2020:16:30:24 +0800] "GET /WebWithSQL/admin_Login HTTP/1.1" 200 22
0:0:0:0:0:0:0:1 - - [15/Feb/2020:16:30:52 +0800] "GET /WebWithSQL/admin_Login HTTP/1.1" 200 22
0:0:0:0:0:0:0:1 - - [15/Feb/2020:16:30:54 +0800] "GET /WebWithSQL/admin_Login HTTP/1.1" 200 22
0:0:0:0:0:0:0:1 - - [15/Feb/2020:16:30:56 +0800] "GET /WebWithSQL/admin_Login HTTP/1.1" 200 22
0:0:0:0:0:0:0:1 - - [15/Feb/2020:16:31:50 +0800] "GET /WebWithSQL/admin_Login HTTP/1.1" 200 22
0:0:0:0:0:0:0:1 - - [15/Feb/2020:16:31:53 +0800] "GET /WebWithSQL/admin_Login HTTP/1.1" 200 22
0:0:0:0:0:0:0:1 - - [15/Feb/2020:16:33:28 +0800] "GET /WebWithSQL HTTP/1.1" 302 -
0:0:0:0:0:0:0:1 - - [15/Feb/2020:16:33:28 +0800] "GET /WebWithSQL/ HTTP/1.1" 200 350
0:0:0:0:0:0:0:1 - - [15/Feb/2020:16:33:33 +0800] "POST /WebWithSQL/admin_Login HTTP/1.1" 200 22
0:0:0:0:0:0:0:1 - - [15/Feb/2020:16:33:49 +0800] "POST /WebWithSQL/admin_Login HTTP/1.1" 200 22
0:0:0:0:0:0:0:1 - - [15/Feb/2020:16:33:53 +0800] "POST /WebWithSQL/admin_Login HTTP/1.1" 200 22
0:0:0:0:0:0:0:1 - - [15/Feb/2020:16:45:53 +0800] "POST /WebWithSQL/admin_Login HTTP/1.1" 200 22
0:0:0:0:0:0:0:1 - - [15/Feb/2020:16:46:08 +0800] "POST /WebWithSQL/admin_Login HTTP/1.1" 200 22
0:0:0:0:0:0:0:1 - - [15/Feb/2020:16:46:11 +0800] "GET /WebWithSQL/ HTTP/1.1" 200 349
0:0:0:0:0:0:0:1 - - [15/Feb/2020:16:46:11 +0800] "GET /favicon.ico HTTP/1.1" 200 21630
0:0:0:0:0:0:0:1 - - [15/Feb/2020:16:46:16 +0800] "GET /WebWithSQL/admin_Login?username=1&password=2 HTTP/1.1" 200 22
0:0:0:0:0:0:0:1 - - [15/Feb/2020:16:47:04 +0800] "GET /WebWithSQL/admin_Login HTTP/1.1" 200 22
0:0:0:0:0:0:0:1 - - [15/Feb/2020:16:47:07 +0800] "GET /WebWithSQL/ HTTP/1.1" 200 350
0:0:0:0:0:0:0:1 - - [15/Feb/2020:16:47:07 +0800] "GET /favicon.ico HTTP/1.1" 200 21630
0:0:0:0:0:0:0:1 - - [15/Feb/2020:16:51:01 +0800] "POST /WebWithSQL/admin_Login HTTP/1.1" 200 22
0:0:0:0:0:0:0:1 - - [15/Feb/2020:16:51:10 +0800] "POST /WebWithSQL/admin_Login HTTP/1.1" 200 22
0:0:0:0:0:0:0:1 - - [15/Feb/2020:16:51:10 +0800] "GET /favicon.ico HTTP/1.1" 200 21630
0:0:0:0:0:0:0:1 - - [15/Feb/2020:16:51:16 +0800] "POST /WebWithSQL/admin_Login HTTP/1.1" 200 22
0:0:0:0:0:0:0:1 - - [15/Feb/2020:16:51:34 +0800] "GET /WebWithSQL/ HTTP/1.1" 200 350
0:0:0:0:0:0:0:1 - - [15/Feb/2020:16:51:34 +0800] "GET /favicon.ico HTTP/1.1" 200 21630
0:0:0:0:0:0:0:1 - - [15/Feb/2020:16:51:34 +0800] "GET /WebWithSQL/ HTTP/1.1" 200 350
0:0:0:0:0:0:0:1 - - [15/Feb/2020:16:51:34 +0800] "GET /favicon.ico HTTP/1.1" 200 21630
0:0:0:0:0:0:0:1 - - [15/Feb/2020:16:51:35 +0800] "GET /WebWithSQL/ HTTP/1.1" 200 350
0:0:0:0:0:0:0:1 - - [15/Feb/2020:16:51:35 +0800] "GET /favicon.ico HTTP/1.1" 200 21630
0:0:0:0:0:0:0:1 - - [15/Feb/2020:16:51:40 +0800] "POST /WebWithSQL/admin_Login HTTP/1.1" 200 22
0:0:0:0:0:0:0:1 - - [15/Feb/2020:16:51:46 +0800] "POST /WebWithSQL/admin_Login HTTP/1.1" 200 22
127.0.0.1 - - [15/Feb/2020:16:52:12 +0800] "GET / HTTP/1.1" 200 11414
0:0:0:0:0:0:0:1 - - [15/Feb/2020:16:52:20 +0800] "GET /WebWithSQL/ HTTP/1.1" 200 350
0:0:0:0:0:0:0:1 - - [15/Feb/2020:16:52:20 +0800] "GET /favicon.ico HTTP/1.1" 200 21630
0:0:0:0:0:0:0:1 - - [15/Feb/2020:16:52:24 +0800] "POST /WebWithSQL/admin_Login HTTP/1.1" 200 22
0:0:0:0:0:0:0:1 - - [15/Feb/2020:16:52:29 +0800] "POST /WebWithSQL/admin_Login HTTP/1.1" 200 22
0:0:0:0:0:0:0:1 - - [15/Feb/2020:16:52:30 +0800] "POST /WebWithSQL/admin_Login HTTP/1.1" 200 22
127.0.0.1 - - [15/Feb/2020:16:55:09 +0800] "GET / HTTP/1.1" 200 11414
0:0:0:0:0:0:0:1 - - [15/Feb/2020:16:55:19 +0800] "GET /WebWithSQL/ HTTP/1.1" 200 350
0:0:0:0:0:0:0:1 - - [15/Feb/2020:16:55:19 +0800] "GET /favicon.ico HTTP/1.1" 200 21630
0:0:0:0:0:0:0:1 - - [15/Feb/2020:16:55:25 +0800] "POST /WebWithSQL/admin_Login HTTP/1.1" 200 30
0:0:0:0:0:0:0:1 - - [15/Feb/2020:18:05:50 +0800] "GET /WebWithSQL/ HTTP/1.1" 200 394
0:0:0:0:0:0:0:1 - - [15/Feb/2020:18:05:50 +0800] "GET /favicon.ico HTTP/1.1" 200 21630
0:0:0:0:0:0:0:1 - - [15/Feb/2020:18:07:12 +0800] "GET /WebWithSQL/ HTTP/1.1" 200 441
0:0:0:0:0:0:0:1 - - [15/Feb/2020:18:07:12 +0800] "GET /favicon.ico HTTP/1.1" 200 21630
0:0:0:0:0:0:0:1 - - [15/Feb/2020:18:08:04 +0800] "GET /WebWithSQL/ HTTP/1.1" 200 445
0:0:0:0:0:0:0:1 - - [15/Feb/2020:18:08:04 +0800] "GET /favicon.ico HTTP/1.1" 200 21630
0:0:0:0:0:0:0:1 - - [15/Feb/2020:18:08:35 +0800] "GET /WebWithSQL/ HTTP/1.1" 200 444
0:0:0:0:0:0:0:1 - - [15/Feb/2020:18:08:35 +0800] "GET /favicon.ico HTTP/1.1" 200 21630
0:0:0:0:0:0:0:1 - - [15/Feb/2020:18:08:39 +0800] "GET /WebWithSQL/admin_Login?username=12&password=21 HTTP/1.1" 200 22
0:0:0:0:0:0:0:1 - - [15/Feb/2020:18:08:46 +0800] "GET /WebWithSQL/admin_Login?username=12&password=3132 HTTP/1.1" 200 22
